module github.com/rb3ckers/trafficmirror

go 1.17

require (
	github.com/gin-gonic/gin v1.7.4
	github.com/hierynomus/taipan v1.2.0
	github.com/mcuadros/go-defaults v1.2.0
	github.com/mitchellh/go-homedir v1.1.0
	github.com/rs/zerolog v1.23.0
	github.com/sony/gobreaker v0.4.1
	github.com/spf13/cobra v1.2.1
	github.com/stretchr/testify v1.7.0
)

require (
	github.com/davecgh/go-spew v1.1.1 // indirect
	github.com/fsnotify/fsnotify v1.4.9 // indirect
	github.com/gin-contrib/sse v0.1.0 // indirect
	github.com/go-playground/locales v0.13.0 // indirect
	github.com/go-playground/universal-translator v0.17.0 // indirect
	github.com/go-playground/validator/v10 v10.4.1 // indirect
	github.com/golang/protobuf v1.5.2 // indirect
	github.com/hashicorp/hcl v1.0.0 // indirect
	github.com/hierynomus/gotils v0.1.0 // indirect
	github.com/inconshreveable/mousetrap v1.0.0 // indirect
	github.com/json-iterator/go v1.1.11 // indirect
	github.com/leodido/go-urn v1.2.0 // indirect
	github.com/magiconair/properties v1.8.5 // indirect
	github.com/mattn/go-isatty v0.0.12 // indirect
	github.com/mitchellh/mapstructure v1.4.1 // indirect
	github.com/modern-go/concurrent v0.0.0-20180306012644-bacd9c7ef1dd // indirect
	github.com/modern-go/reflect2 v1.0.1 // indirect
	github.com/pelletier/go-toml v1.9.3 // indirect
	github.com/pmezard/go-difflib v1.0.0 // indirect
	github.com/spf13/afero v1.6.0 // indirect
	github.com/spf13/cast v1.3.1 // indirect
	github.com/spf13/jwalterweatherman v1.1.0 // indirect
	github.com/spf13/pflag v1.0.5 // indirect
	github.com/spf13/viper v1.8.1 // indirect
	github.com/subosito/gotenv v1.2.0 // indirect
	github.com/ugorji/go/codec v1.1.7 // indirect
	golang.org/x/crypto v0.0.0-20200622213623-75b288015ac9 // indirect
	golang.org/x/sys v0.0.0-20210510120138-977fb7262007 // indirect
	golang.org/x/text v0.3.6 // indirect
	google.golang.org/protobuf v1.26.0 // indirect
	gopkg.in/ini.v1 v1.62.0 // indirect
	gopkg.in/yaml.v2 v2.4.0 // indirect
	gopkg.in/yaml.v3 v3.0.0-20210107192922-496545a6307b // indirect
)
